<svg width="24" height="24" viewBox="0 0 24 24" fill="none" xmlns="http://www.w3.org/2000/svg">
<path fill-rule="evenodd" clip-rule="evenodd" d="M13.1014 17.5537L16.1246 20.5531L20.4353 5.25252L8.06288 17.6237L12.1417 17.2018C12.3277 17.1858 12.5036 17.2098 12.6676 17.2718C12.8315 17.3358 12.9775 17.4298 13.1014 17.5537ZM6.79924 11.859L6.37736 15.9361L18.7478 3.5649L3.44821 7.87593L6.44734 10.8992C6.57131 11.0232 6.66528 11.1692 6.72726 11.3332C6.79125 11.4971 6.81324 11.6731 6.79924 11.859ZM17.8581 23.1305C17.8101 23.3344 17.7141 23.5104 17.5641 23.6584C17.4162 23.8063 17.2322 23.9043 17.0143 23.9503C16.8104 24.0123 16.6084 24.0163 16.4045 23.9623C16.2025 23.9083 16.0306 23.8023 15.8906 23.6464L11.8358 19.6153L4.97177 20.3191C4.79982 20.3491 4.62787 20.3351 4.45592 20.2711C4.28397 20.2091 4.13601 20.1152 4.01005 19.9912C3.88608 19.8652 3.79211 19.7173 3.73013 19.5453C3.66615 19.3733 3.65015 19.2014 3.68214 19.0294L4.38594 12.165L0.355098 8.10988C0.199143 7.96991 0.0931732 7.79795 0.0391887 7.59599C-0.0167952 7.39204 -0.0127963 7.18809 0.0511853 6.98613C0.097172 6.76618 0.195144 6.58422 0.343101 6.43426C0.491059 6.28629 0.667008 6.18831 0.870949 6.14232L22.4967 0.0496957C22.7007 -0.0122903 22.9026 -0.0162894 23.1066 0.0376984C23.3085 0.0936858 23.4884 0.197662 23.6444 0.353627C23.8024 0.511591 23.9063 0.689551 23.9623 0.893505C24.0163 1.09746 24.0123 1.29941 23.9503 1.50337L17.8581 23.1305Z" fill="white"/>
</svg>
