<svg width="132" height="35" viewBox="0 0 132 35" fill="none" xmlns="http://www.w3.org/2000/svg">
<path fill-rule="evenodd" clip-rule="evenodd" d="M0.00499357 0L0 35L132 0H0.00499357Z" fill="#008338"/>
</svg>
